[1][PRIORA][BLACK][320000][250000]
[2][SPORTAGE][BLACK][0][1800000]
[3][RIO][RED][52500][780000]
[4][LANCER][BLACK][400000][390000]
[5][XC90][BLACK][130000][980000]
[6][COOPER][WHITE][15000][2890000]
[7][SOLARIS][YELLOW][320][750000]
[8][COUNTRYMAN][BLUE][389300][1562000]
[9][VELAR][BLUE][98000][5500000]
[10][CAROLA][WHITE][125000][1800000]
[11][CAMRY][RED][1200][2840000]
[12][CAMRY][WHITE][0][2840000]
[13][CAMRY][BLUE][100900][1720000]
[14][CAMRY][PURPLE][92000][872000]
[15][RIO][ORANGE][4500][800000]
[16][CALINA][BLACK][650000][128000]