1 Course0 19 6 2020 28 1 2021
2 Course1 12 5 2020 22 0 2021
3 Course2 26 10 2020 23 6 2021
4 Course3 31 2 2020 6 5 2021
11 Course10 28 4 2020 21 7 2021
12 Course11 26 7 2020 21 7 2021
13 Course12 20 1 2020 16 0 2021
14 Course13 26 0 2020 25 9 2021
15 Course14 2 6 2020 8 5 2021
16 Course15 21 9 2020 14 0 2021
17 Course16 15 10 2020 23 8 2021
18 Course17 10 10 2020 23 10 2021
20 Course19 22 6 2020 6 10 2021
21 Course20 9 3 2020 4 7 2021
22 Course21 16 6 2020 8 7 2021
23 Course22 19 10 2020 6 9 2021
24 Course23 3 8 2020 28 8 2021
25 Course24 30 3 2020 5 1 2021
26 Course25 17 7 2020 2 10 2021
27 Course26 4 4 2020 12 1 2021
28 Course27 18 9 2020 22 10 2021
29 Course28 9 8 2020 31 0 2021
30 Course29 14 2 2020 19 5 2021
31 Course30 26 1 2020 31 11 2020
32 Course31 13 1 2020 28 6 2021
33 Course32 3 5 2020 22 10 2021
34 Course33 10 7 2020 23 7 2021
35 Course34 19 6 2020 13 4 2021
36 Course35 15 6 2020 7 10 2021
37 Course36 21 10 2020 27 4 2021
38 Course37 26 1 2020 26 6 2021
39 Course38 7 5 2020 28 1 2021
40 Course39 4 4 2020 23 4 2021
41 Course40 9 7 2020 7 2 2021
42 Course41 15 7 2020 25 9 2021
43 Course42 16 6 2020 28 9 2021
44 Course43 1 3 2020 4 10 2021
45 Course44 28 8 2020 24 0 2021
46 Course45 19 10 2020 18 4 2021
47 Course46 27 4 2020 31 11 2020
48 Course47 12 2 2020 9 7 2021
49 Course48 20 5 2020 4 3 2021
50 Course49 13 0 2020 9 4 2021
51 Course50 4 9 2020 14 10 2021
52 Course51 2 3 2020 27 7 2021
53 Course52 21 6 2020 21 9 2021
54 Course53 25 3 2020 26 1 2021
55 Course54 19 6 2020 20 5 2021
56 Course55 27 9 2020 15 3 2021
57 Course56 12 10 2020 13 3 2021
58 Course57 12 10 2020 5 2 2021
59 Course58 29 8 2020 18 4 2021
60 Course59 8 1 2020 15 3 2021
61 Course60 6 0 2020 24 9 2021
62 Course61 6 10 2020 3 10 2021
63 Course62 8 2 2020 22 0 2021
64 Course63 24 3 2020 7 5 2021
65 Course64 24 2 2020 17 4 2021
66 Course65 13 10 2020 28 0 2021
67 Course66 10 9 2020 20 8 2021
68 Course67 18 8 2020 25 7 2021
69 Course68 29 3 2020 2 8 2021
70 Course69 1 7 2020 28 3 2021
71 Course70 10 6 2020 10 7 2021
72 Course71 10 5 2020 1 7 2021
73 Course72 6 4 2020 16 7 2021
74 Course73 10 1 2020 1 3 2021
75 Course74 15 9 2020 5 6 2021
76 Course75 29 9 2020 17 0 2021
77 Course76 11 1 2020 25 0 2021
78 Course77 14 0 2020 4 9 2021
79 Course78 13 6 2020 25 3 2021
80 Course79 11 5 2020 23 10 2021
81 Course80 16 7 2020 18 9 2021
82 Course81 15 3 2020 19 1 2021
83 Course82 22 7 2020 23 2 2021
84 Course83 24 7 2020 9 10 2021
85 Course84 26 2 2020 2 10 2021
86 Course85 2 0 2020 20 4 2021
87 Course86 21 4 2020 10 3 2021



